{
  "vendor": [
    "./node_modules/angular-material/angular-material.scss",
    "./node_modules/material-design-iconic-font/scss/*.scss",
    "./node_modules/font-awesome/scss/*.scss",
    "./node_modules/@fortawesome/fontawesome-free/css/all.css",
    "./node_modules/angular-block-ui/dist/angular-block-ui.css",
    "./node_modules/nvd3/build/nv.d3.css",
    "./node_modules/ng-material-datetimepicker/css/material-datetimepicker.css",
    "./node_modules/ng-croppie/unminified/ng-croppie.css",
    "./node_modules/angular-ui-tree/dist/angular-ui-tree.css",
    "./node_modules/toastr/build/toastr.css",
    "./node_modules/angular-hotkeys/build/hotkeys.css"
  ],
  "fonts": [
    "./node_modules/material-design-iconic-font/dist/fonts/*",
    "./node_modules/font-awesome/fonts/*"
  ],
  "webFonts": [
    "./node_modules/@fortawesome/fontawesome-free/webfonts/*"
  ],
  "app": [
    "./src/**/**/*.scss"
  ]
}
